APS/misc/tb_asm_alu.vcd
$date
	Fri Nov 17 18:17:59 2023
$end
$version
	Icarus Verilog
$end
$timescale
	1s
$end
$scope module testbench $end
$var wire 1 ! write_enable $end
$var wire 32 " data_to_mem [31:0] $end
$var wire 32 # address_to_mem [31:0] $end
$var reg 1 $ clk $end
$var reg 1 % reset $end
$scope module simulated_system $end
$var wire 1 $ clk $end
$var wire 1 % reset $end
$var wire 1 ! write_enable $end
$var wire 32 & pc [31:0] $end
$var wire 32 ' instruction [31:0] $end
$var wire 32 ( data_to_mem [31:0] $end
$var wire 32 ) data_from_mem [31:0] $end
$var wire 32 * address_to_mem [31:0] $end
$scope module CPU $end
$var wire 1 + BrTargetSelect $end
$var wire 1 , BranchJalx $end
$var wire 1 - BranchOutcome $end
$var wire 1 ! WE $end
$var wire 32 . address_to_mem [31:0] $end
$var wire 1 $ clk $end
$var wire 32 / data_to_mem [31:0] $end
$var wire 1 % reset $end
$var wire 32 0 srcB [31:0] $end
$var wire 32 1 rs2 [31:0] $end
$var wire 32 2 rs1 [31:0] $end
$var wire 32 3 res [31:0] $end
$var wire 32 4 instruction [31:0] $end
$var wire 4 5 immControl [3:0] $end
$var wire 32 6 data_from_mem [31:0] $end
$var wire 1 7 Zero $end
$var wire 1 8 RegWrite $end
$var wire 32 9 PCn [31:0] $end
$var wire 32 : PCPlus4 [31:0] $end
$var wire 32 ; PC [31:0] $end
$var wire 1 < MemWrite $end
$var wire 1 = MemToReg $end
$var wire 1 > Lst $end
$var wire 32 ? ImmOp [31:0] $end
$var wire 32 @ ConnectMuxSrcB [31:0] $end
$var wire 32 A BranchTarget [31:0] $end
$var wire 1 B BranchJalr $end
$var wire 1 C BranchJal $end
$var wire 1 D BranchBlt $end
$var wire 1 E BranchBeq $end
$var wire 32 F BrTargetSrc [31:0] $end
$var wire 32 G BrJalxMuxOut [31:0] $end
$var wire 1 H AuiPC $end
$var wire 1 I ALUSrc $end
$var wire 32 J ALUOut [31:0] $end
$var wire 4 K ALUControl [3:0] $end
$scope module ALU1 $end
$var wire 32 L srcB [31:0] $end
$var wire 32 M srcA [31:0] $end
$var wire 4 N ALUControl [3:0] $end
$var reg 32 O ALUOut [31:0] $end
$var reg 1 > LesserThan $end
$var reg 1 7 Zero $end
$upscope $end
$scope module PCReg1 $end
$var wire 1 $ clk $end
$var wire 1 % reset $end
$var wire 32 P PCn [31:0] $end
$var wire 32 Q PC [31:0] $end
$var reg 32 R PCregister [31:0] $end
$upscope $end
$scope module adder_PC4 $end
$var wire 32 S num1 [31:0] $end
$var wire 32 T num2 [31:0] $end
$var wire 32 U sum [31:0] $end
$upscope $end
$scope module adder_PCImm $end
$var wire 32 V num2 [31:0] $end
$var wire 32 W sum [31:0] $end
$var wire 32 X num1 [31:0] $end
$upscope $end
$scope module controlUnit1 $end
$var wire 32 Y instruction [31:0] $end
$var reg 4 Z ALUControl [3:0] $end
$var reg 1 I ALUSrc $end
$var reg 1 H AuiPC $end
$var reg 1 E BranchBeq $end
$var reg 1 D BranchBlt $end
$var reg 1 C BranchJal $end
$var reg 1 B BranchJalr $end
$var reg 1 = MemToReg $end
$var reg 1 < MemWrite $end
$var reg 1 8 RegWrite $end
$var reg 4 [ immControl [3:0] $end
$upscope $end
$scope module immDecoder1 $end
$var wire 4 \ immControl [3:0] $end
$var wire 25 ] instruction [24:0] $end
$var reg 32 ^ out [31:0] $end
$var integer 32 _ i [31:0] $end
$upscope $end
$scope module mux_ALUSrc $end
$var wire 32 ` in1 [31:0] $end
$var wire 1 I select $end
$var wire 32 a out [31:0] $end
$var wire 32 b in0 [31:0] $end
$upscope $end
$scope module mux_AuiPC $end
$var wire 32 c in0 [31:0] $end
$var wire 32 d in1 [31:0] $end
$var wire 1 H select $end
$var wire 32 e out [31:0] $end
$upscope $end
$scope module mux_BrJalx $end
$var wire 32 f in0 [31:0] $end
$var wire 32 g in1 [31:0] $end
$var wire 1 , select $end
$var wire 32 h out [31:0] $end
$upscope $end
$scope module mux_BrOutcome $end
$var wire 32 i in0 [31:0] $end
$var wire 1 - select $end
$var wire 32 j out [31:0] $end
$var wire 32 k in1 [31:0] $end
$upscope $end
$scope module mux_BrTarget $end
$var wire 32 l in0 [31:0] $end
$var wire 32 m in1 [31:0] $end
$var wire 1 + select $end
$var wire 32 n out [31:0] $end
$upscope $end
$scope module mux_MemToReg $end
$var wire 32 o in0 [31:0] $end
$var wire 1 = select $end
$var wire 32 p out [31:0] $end
$var wire 32 q in1 [31:0] $end
$upscope $end
$scope module registerFile1 $end
$var wire 5 r a1 [4:0] $end
$var wire 5 s a2 [4:0] $end
$var wire 5 t a3 [4:0] $end
$var wire 1 $ clk $end
$var wire 32 u rd1 [31:0] $end
$var wire 32 v rd2 [31:0] $end
$var wire 1 % reset $end
$var wire 32 w wd3 [31:0] $end
$var wire 1 8 we3 $end
$upscope $end
$upscope $end
$scope module dmem $end
$var wire 32 x address [31:0] $end
$var wire 1 $ clk $end
$var wire 32 y rd [31:0] $end
$var wire 32 z wd [31:0] $end
$var wire 1 ! we $end
$upscope $end
$scope module imem $end
$var wire 6 { address [5:0] $end
$var wire 32 | rd [31:0] $end
$upscope $end
$upscope $end
$upscope $end
$enddefinitions $end
#0
$dumpvars
b100000000010010000000011 |
b0 {
bx z
b10100 y
b1000 x
b10100 w
bx v
b0 u
b1000 t
b1000 s
b0 r
b10100 q
b10100 p
b1000 o
b1000 n
b1000 m
b1000 l
b1000 k
b100 j
b100 i
b1000 h
b100 g
b1000 f
b1000 e
b1000 d
b1000 c
bx b
b1000 a
b1000 `
b100000 _
b1000 ^
b10000000001001000 ]
b0 \
b0 [
b0 Z
b100000000010010000000011 Y
b1000 X
b1000 W
b0 V
b100 U
b0 T
b100 S
b0 R
b0 Q
b100 P
b1000 O
b0 N
b0 M
b1000 L
b0 K
b1000 J
1I
0H
b1000 G
b1000 F
0E
0D
0C
0B
b1000 A
b1000 @
b1000 ?
x>
1=
0<
b0 ;
b100 :
b100 9
18
07
b10100 6
b0 5
b100000000010010000000011 4
b10100 3
b0 2
bx 1
b1000 0
bx /
b1000 .
0-
0,
0+
b1000 *
b10100 )
bx (
b100000000010010000000011 '
b0 &
1%
1$
b1000 #
bx "
0!
$end
#1
0$
#2
b1011 3
b1011 p
b1011 w
b100 G
b100 h
b100 o
b1011 )
b1011 6
b1011 q
b1011 y
b100 #
b100 *
b100 .
b100 x
b100 J
b100 O
b100 f
b100 m
b100 0
b100 L
b100 e
b100 @
b100 a
b100 c
b100000 _
b100 ?
b100 X
b100 ^
b100 `
b1000000001001001 ]
b1001 t
b100 s
b1000 9
b1000 P
b1000 j
b1000 A
b1000 k
b1000 n
b10000000010010010000011 '
b10000000010010010000011 4
b10000000010010010000011 Y
b10000000010010010000011 |
b1 {
bx "
bx (
bx /
bx z
bx 1
bx b
bx v
b1000 :
b1000 U
b1000 g
b1000 i
b1000 F
b1000 W
b1000 d
b1000 l
b100 &
b100 ;
b100 Q
b100 R
b100 T
b100 V
1$
0%
#3
0$
#4
17
b0 G
b0 h
b0 o
b0 )
b0 6
b0 q
b0 y
b0 #
b0 *
b0 .
b0 x
b0 J
b0 O
b0 f
b0 m
b0 0
b0 L
b0 e
b0 @
b0 a
b0 c
b100000 _
b0 ?
b0 X
b0 ^
b0 `
b0 3
b0 p
b0 w
b10010 ]
b10010 t
b0 "
b0 (
b0 /
b0 z
b0 1
b0 b
b0 v
b0 s
0=
b1100 9
b1100 P
b1100 j
b1000 A
b1000 k
b1000 n
b100100010011 '
b100100010011 4
b100100010011 Y
b100100010011 |
b10 {
b1100 :
b1100 U
b1100 g
b1100 i
b1000 F
b1000 W
b1000 d
b1000 l
b1000 &
b1000 ;
b1000 Q
b1000 R
b1000 T
b1000 V
1$
#5
0$
#6
b1011 3
b1011 p
b1011 w
0-
07
b1011 G
b1011 h
b1011 o
b10100 )
b10100 6
b10100 q
b10100 y
b1011 #
b1011 *
b1011 .
b1011 x
b1011 J
b1011 O
b1011 f
b1011 m
b100000 _
b1001100 ?
b1001100 X
b1001100 ^
b1001100 `
b10100100100100001100 ]
b1100 t
b10010 s
b1011 2
b1011 M
b1011 u
b1001 r
b10 K
b10 N
b10 Z
1E
0I
b10 5
b10 [
b10 \
08
b10000 9
b10000 P
b10000 j
b1011000 A
b1011000 k
b1011000 n
b101001001001000011001100011 '
b101001001001000011001100011 4
b101001001001000011001100011 Y
b101001001001000011001100011 |
b11 {
b10000 :
b10000 U
b10000 g
b10000 i
b1011000 F
b1011000 W
b1011000 d
b1011000 l
b1100 &
b1100 ;
b1100 Q
b1100 R
b1100 T
b1100 V
1$
#7
0$
#8
b10100 G
b10100 h
b10100 o
b0 )
b0 6
b0 q
b0 y
b100000 _
b0 ?
b0 X
b0 ^
b0 `
b10100 #
b10100 *
b10100 .
b10100 x
b10100 J
b10100 O
b10100 f
b10100 m
b0 3
b0 p
b0 w
b100001001010 ]
b1010 t
b0 s
b10100 2
b10100 M
b10100 u
b1000 r
1I
b0 5
b0 [
b0 \
b0 K
b0 N
b0 Z
1=
18
0E
b10100 9
b10100 P
b10100 j
b10000 A
b10000 k
b10000 n
b1000010010100000011 '
b1000010010100000011 4
b1000010010100000011 Y
b1000010010100000011 |
b100 {
b10100 :
b10100 U
b10100 g
b10100 i
b10000 F
b10000 W
b10000 d
b10000 l
b10000 &
b10000 ;
b10000 Q
b10000 R
b10000 T
b10000 V
1$
#9
0$
#10
1-
b10100 0
b10100 L
b10100 e
07
b10100 @
b10100 a
b10100 c
b11000 G
b11000 h
b11000 o
b10100 #
b10100 *
b10100 .
b10100 x
b10100 J
b10100 O
b10100 f
b10100 m
b100000 _
b10100 ?
b10100 X
b10100 ^
b10100 `
b11000 3
b11000 p
b11000 w
1,
b101000000000000001 ]
b1 t
bx "
bx (
bx /
bx z
bx 1
bx b
bx v
b10100 s
b0 2
b0 M
b0 u
b0 r
b100 5
b100 [
b100 \
0=
1C
b101000 9
b101000 P
b101000 j
b101000 A
b101000 k
b101000 n
b1010000000000000011101111 '
b1010000000000000011101111 4
b1010000000000000011101111 Y
b1010000000000000011101111 |
b101 {
b11000 :
b11000 U
b11000 g
b11000 i
b101000 F
b101000 W
b101000 d
b101000 l
b10100 &
b10100 ;
b10100 Q
b10100 R
b10100 T
b10100 V
1$
#11
0$
#12
b10 #
b10 *
b10 .
b10 x
b10 J
b10 O
b10 f
b10 m
0-
b10 0
b10 L
b10 e
b10 @
b10 a
b10 c
b100000 _
b10 ?
b10 X
b10 ^
b10 `
0,
b10 3
b10 p
b10 w
b101100 9
b101100 P
b101100 j
b100000000000101 ]
b101 t
b10 s
b0 5
b0 [
b0 \
0C
b10 G
b10 h
b10 o
b101010 A
b101010 k
b101010 n
b1000000000001010010011 '
b1000000000001010010011 4
b1000000000001010010011 Y
b1000000000001010010011 |
b1010 {
b101100 :
b101100 U
b101100 g
b101100 i
b101010 F
b101010 W
b101010 d
b101010 l
b101000 &
b101000 ;
b101000 Q
b101000 R
b101000 T
b101000 V
1$
#13
0$
#14
b1 3
b1 p
b1 w
b1 G
b1 h
b1 o
1-
1>
b1 #
b1 *
b1 .
b1 x
b1 J
b1 O
b1 f
b1 m
b100000 _
b11100 ?
b11100 X
b11100 ^
b11100 `
b1010101010011100 ]
b11100 t
b10 "
b10 (
b10 /
b10 z
b10 1
b10 b
b10 v
b101 s
b1010 r
b11 K
b11 N
b11 Z
1D
0I
b10 5
b10 [
b10 \
08
b1001000 9
b1001000 P
b1001000 j
b1001000 A
b1001000 k
b1001000 n
b10101010100111001100011 '
b10101010100111001100011 4
b10101010100111001100011 Y
b10101010100111001100011 |
b1011 {
b110000 :
b110000 U
b110000 g
b110000 i
b1001000 F
b1001000 W
b1001000 d
b1001000 l
b101100 &
b101100 ;
b101100 Q
b101100 R
b101100 T
b101100 V
1$
#15
0$
#16
17
b0 3
b0 p
b0 w
b0 0
b0 L
b0 e
b0 G
b0 h
b0 o
0-
b0 @
b0 a
b0 c
b100000 _
b0 ?
b0 X
b0 ^
b0 `
b0 #
b0 *
b0 .
b0 x
b0 J
b0 O
b0 f
b0 m
b1001100 9
b1001100 P
b1001100 j
b1010 ]
b1010 t
b0 "
b0 (
b0 /
b0 z
b0 1
b0 b
b0 v
b0 s
b0 r
1I
b0 5
b0 [
b0 \
b0 K
b0 N
b0 Z
18
0D
b1001000 A
b1001000 k
b1001000 n
b10100010011 '
b10100010011 4
b10100010011 Y
b10100010011 |
b10010 {
b1001100 :
b1001100 U
b1001100 g
b1001100 i
b1001000 F
b1001000 W
b1001000 d
b1001000 l
b1001000 &
b1001000 ;
b1001000 Q
b1001000 R
b1001000 T
b1001000 V
1$
#17
0$
#18
b1010000 3
b1010000 p
b1010000 w
1-
07
b1 )
b1 6
b1 q
b1 y
b1010000 G
b1010000 h
b1010000 o
b100000 _
b11000 #
b11000 *
b11000 .
b11000 x
b11000 J
b11000 O
b11000 f
b11000 m
1,
b100000000 ]
b0 t
b11000 2
b11000 M
b11000 u
b1 r
1+
1B
b11000 9
b11000 P
b11000 j
b11000 A
b11000 k
b11000 n
b1000000001100111 '
b1000000001100111 4
b1000000001100111 Y
b1000000001100111 |
b10011 {
b1010000 :
b1010000 U
b1010000 g
b1010000 i
b1001100 F
b1001100 W
b1001100 d
b1001100 l
b1001100 &
b1001100 ;
b1001100 Q
b1001100 R
b1001100 T
b1001100 V
1$
#19
0$
#20
b11100 9
b11100 P
b11100 j
0-
b0 )
b0 6
b0 q
b0 y
b10100 #
b10100 *
b10100 .
b10100 x
b10100 J
b10100 O
b10100 f
b10100 m
b100000 _
0,
b10100 3
b10100 p
b10100 w
b10100100001000000 ]
b1010 s
b10100 2
b10100 M
b10100 u
b1000 r
b1 5
b1 [
b1 \
1!
1<
08
0+
0B
b10100 G
b10100 h
b10100 o
b101001000010000000100011 '
b101001000010000000100011 4
b101001000010000000100011 Y
b101001000010000000100011 |
b110 {
b11100 :
b11100 U
b11100 g
b11100 i
b11000 F
b11000 W
b11000 d
b11000 l
b11000 &
b11000 ;
b11000 Q
b11000 R
b11000 T
b11000 V
1$
#21
0$
#22
b1 3
b1 p
b1 w
b1 0
b1 L
b1 e
07
b1 G
b1 h
b1 o
b1 @
b1 a
b1 c
b1 #
b1 *
b1 .
b1 x
b1 J
b1 O
b1 f
b1 m
b100000 _
b1 ?
b1 X
b1 ^
b1 `
b11001000010010 ]
b10010 t
b11000 "
b11000 (
b11000 /
b11000 z
b11000 1
b11000 b
b11000 v
b1 s
b0 2
b0 M
b0 u
b10010 r
b0 5
b0 [
b0 \
0!
0<
18
b100000 9
b100000 P
b100000 j
b11101 A
b11101 k
b11101 n
b110010000100100010011 '
b110010000100100010011 4
b110010000100100010011 Y
b110010000100100010011 |
b111 {
b100000 :
b100000 U
b100000 g
b100000 i
b11101 F
b11101 W
b11101 d
b11101 l
b11100 &
b11100 ;
b11100 Q
b11100 R
b11100 T
b11100 V
1$
#23
0$
#24
b1 )
b1 6
b1 q
b1 y
b100 0
b100 L
b100 e
b100 @
b100 a
b100 c
b100000 _
b100 ?
b100 X
b100 ^
b100 `
b11000 3
b11000 p
b11000 w
b1000100000001000 ]
b1000 t
bx "
bx (
bx /
bx z
bx 1
bx b
bx v
b100 s
b1000 r
b11000 G
b11000 h
b11000 o
b100100 9
b100100 P
b100100 j
b100100 A
b100100 k
b100100 n
b10001000000010000010011 '
b10001000000010000010011 4
b10001000000010000010011 Y
b10001000000010000010011 |
b1000 {
b11000 #
b11000 *
b11000 .
b11000 x
b11000 J
b11000 O
b11000 f
b11000 m
b100100 :
b100100 U
b100100 g
b100100 i
b100100 F
b100100 W
b100100 d
b100100 l
b100000 &
b100000 ;
b100000 Q
b100000 R
b100000 T
b100000 V
b10100 2
b10100 M
b10100 u
1$
#25
0$
#26
1-
b11111111111111111111111111101000 0
b11111111111111111111111111101000 L
b11111111111111111111111111101000 e
b11111111111111111111111111101000 @
b11111111111111111111111111101000 a
b11111111111111111111111111101000 c
b101000 3
b101000 p
b101000 w
b100000 _
b11111111111111111111111111101000 ?
b11111111111111111111111111101000 X
b11111111111111111111111111101000 ^
b11111111111111111111111111101000 `
1,
b101000 G
b101000 h
b101000 o
bx )
bx 6
bx q
bx y
b1111111010011111111100000 ]
b0 t
b1011 "
b1011 (
b1011 /
b1011 z
b1011 1
b1011 b
b1011 v
b1001 s
b11111 r
b100 5
b100 [
b100 \
1C
bx #
bx *
bx .
bx x
bx J
bx O
bx f
bx m
b1100 9
b1100 P
b1100 j
b1100 A
b1100 k
b1100 n
b11111110100111111111000001101111 '
b11111110100111111111000001101111 4
b11111110100111111111000001101111 Y
b11111110100111111111000001101111 |
b1001 {
bx 2
bx M
bx u
b101000 :
b101000 U
b101000 g
b101000 i
b1100 F
b1100 W
b1100 d
b1100 l
b100100 &
b100100 ;
b100100 Q
b100100 R
b100100 T
b100100 V
1$
#27
0$
#28
0-
b10100 )
b10100 6
b10100 q
b10100 y
b1 0
b1 L
b1 e
b1010 #
b1010 *
b1010 .
b1010 x
b1010 J
b1010 O
b1010 f
b1010 m
b1 @
b1 a
b1 c
b100000 _
b1001100 ?
b1001100 X
b1001100 ^
b1001100 `
0,
b1010 3
b1010 p
b1010 w
b10000 9
b10000 P
b10000 j
b10100100100100001100 ]
b1100 t
b1 "
b1 (
b1 /
b1 z
b1 1
b1 b
b1 v
b10010 s
b1011 2
b1011 M
b1011 u
b1001 r
b10 K
b10 N
b10 Z
1E
0I
b10 5
b10 [
b10 \
08
0C
b1010 G
b1010 h
b1010 o
b1011000 A
b1011000 k
b1011000 n
b101001001001000011001100011 '
b101001001001000011001100011 4
b101001001001000011001100011 Y
b101001001001000011001100011 |
b11 {
b10000 :
b10000 U
b10000 g
b10000 i
b1011000 F
b1011000 W
b1011000 d
b1011000 l
b1100 &
b1100 ;
b1100 Q
b1100 R
b1100 T
b1100 V
1$
#29
0$
#30
b0 0
b0 L
b0 e
b11000 G
b11000 h
b11000 o
b1 )
b1 6
b1 q
b1 y
b0 @
b0 a
b0 c
b100000 _
b0 ?
b0 X
b0 ^
b0 `
b11000 #
b11000 *
b11000 .
b11000 x
b11000 J
b11000 O
b11000 f
b11000 m
b1 3
b1 p
b1 w
b100001001010 ]
b1010 t
b0 "
b0 (
b0 /
b0 z
b0 1
b0 b
b0 v
b0 s
b11000 2
b11000 M
b11000 u
b1000 r
1I
b0 5
b0 [
b0 \
b0 K
b0 N
b0 Z
1=
18
0E
b10100 9
b10100 P
b10100 j
b10000 A
b10000 k
b10000 n
b1000010010100000011 '
b1000010010100000011 4
b1000010010100000011 Y
b1000010010100000011 |
b100 {
b10100 :
b10100 U
b10100 g
b10100 i
b10000 F
b10000 W
b10000 d
b10000 l
b10000 &
b10000 ;
b10000 Q
b10000 R
b10000 T
b10000 V
1$
#31
0$
#32
1-
b10100 0
b10100 L
b10100 e
07
b0 )
b0 6
b0 q
b0 y
b10100 @
b10100 a
b10100 c
b10100 #
b10100 *
b10100 .
b10100 x
b10100 J
b10100 O
b10100 f
b10100 m
b100000 _
b10100 ?
b10100 X
b10100 ^
b10100 `
b11000 3
b11000 p
b11000 w
1,
b101000000000000001 ]
b1 t
bx "
bx (
bx /
bx z
bx 1
bx b
bx v
b10100 s
b0 2
b0 M
b0 u
b0 r
b100 5
b100 [
b100 \
0=
1C
b101000 9
b101000 P
b101000 j
b101000 A
b101000 k
b101000 n
b1010000000000000011101111 '
b1010000000000000011101111 4
b1010000000000000011101111 Y
b1010000000000000011101111 |
b101 {
b11000 :
b11000 U
b11000 g
b11000 i
b101000 F
b101000 W
b101000 d
b101000 l
b10100 &
b10100 ;
b10100 Q
b10100 R
b10100 T
b10100 V
1$
#33
0$
#34
b10 #
b10 *
b10 .
b10 x
b10 J
b10 O
b10 f
b10 m
0-
b10 0
b10 L
b10 e
b10 @
b10 a
b10 c
b100000 _
b10 ?
b10 X
b10 ^
b10 `
0,
b10 3
b10 p
b10 w
b101100 9
b101100 P
b101100 j
b100000000000101 ]
b101 t
b10 s
b0 5
b0 [
b0 \
0C
b10 G
b10 h
b10 o
b101010 A
b101010 k
b101010 n
b1000000000001010010011 '
b1000000000001010010011 4
b1000000000001010010011 Y
b1000000000001010010011 |
b1010 {
b101100 :
b101100 U
b101100 g
b101100 i
b101010 F
b101010 W
b101010 d
b101010 l
b101000 &
b101000 ;
b101000 Q
b101000 R
b101000 T
b101000 V
1$
#35
0$
#36
b1 3
b1 p
b1 w
b1 G
b1 h
b1 o
1-
b1 #
b1 *
b1 .
b1 x
b1 J
b1 O
b1 f
b1 m
b100000 _
b11100 ?
b11100 X
b11100 ^
b11100 `
b1010101010011100 ]
b11100 t
b10 "
b10 (
b10 /
b10 z
b10 1
b10 b
b10 v
b101 s
b1 2
b1 M
b1 u
b1010 r
b11 K
b11 N
b11 Z
1D
0I
b10 5
b10 [
b10 \
08
b1001000 9
b1001000 P
b1001000 j
b1001000 A
b1001000 k
b1001000 n
b10101010100111001100011 '
b10101010100111001100011 4
b10101010100111001100011 Y
b10101010100111001100011 |
b1011 {
b110000 :
b110000 U
b110000 g
b110000 i
b1001000 F
b1001000 W
b1001000 d
b1001000 l
b101100 &
b101100 ;
b101100 Q
b101100 R
b101100 T
b101100 V
1$
#37
0$
#38
17
b0 3
b0 p
b0 w
b0 0
b0 L
b0 e
b0 G
b0 h
b0 o
0-
b0 @
b0 a
b0 c
b100000 _
b0 ?
b0 X
b0 ^
b0 `
b0 #
b0 *
b0 .
b0 x
b0 J
b0 O
b0 f
b0 m
b1001100 9
b1001100 P
b1001100 j
b1010 ]
b1010 t
b0 "
b0 (
b0 /
b0 z
b0 1
b0 b
b0 v
b0 s
b0 2
b0 M
b0 u
b0 r
1I
b0 5
b0 [
b0 \
b0 K
b0 N
b0 Z
18
0D
b1001000 A
b1001000 k
b1001000 n
b10100010011 '
b10100010011 4
b10100010011 Y
b10100010011 |
b10010 {
b1001100 :
b1001100 U
b1001100 g
b1001100 i
b1001000 F
b1001000 W
b1001000 d
b1001000 l
b1001000 &
b1001000 ;
b1001000 Q
b1001000 R
b1001000 T
b1001000 V
1$
#39
0$
#40
b1010000 3
b1010000 p
b1010000 w
1-
07
b1 )
b1 6
b1 q
b1 y
b1010000 G
b1010000 h
b1010000 o
b100000 _
b11000 #
b11000 *
b11000 .
b11000 x
b11000 J
b11000 O
b11000 f
b11000 m
1,
b100000000 ]
b0 t
b11000 2
b11000 M
b11000 u
b1 r
1+
1B
b11000 9
b11000 P
b11000 j
b11000 A
b11000 k
b11000 n
b1000000001100111 '
b1000000001100111 4
b1000000001100111 Y
b1000000001100111 |
b10011 {
b1010000 :
b1010000 U
b1010000 g
b1010000 i
b1001100 F
b1001100 W
b1001100 d
b1001100 l
b1001100 &
b1001100 ;
b1001100 Q
b1001100 R
b1001100 T
b1001100 V
1$
#41
0$
#42
b11100 9
b11100 P
b11100 j
0-
b100000 _
0,
b11000 3
b11000 p
b11000 w
b10100100001000000 ]
b1010 s
b1000 r
b1 5
b1 [
b1 \
1!
1<
08
0+
0B
b11000 G
b11000 h
b11000 o
b101001000010000000100011 '
b101001000010000000100011 4
b101001000010000000100011 Y
b101001000010000000100011 |
b110 {
b11100 :
b11100 U
b11100 g
b11100 i
b11000 F
b11000 W
b11000 d
b11000 l
b11000 &
b11000 ;
b11000 Q
b11000 R
b11000 T
b11000 V
1$
#43
0$
#44
b10 3
b10 p
b10 w
b1 0
b1 L
b1 e
b10 G
b10 h
b10 o
b0 )
b0 6
b0 q
b0 y
b1 @
b1 a
b1 c
b10 #
b10 *
b10 .
b10 x
b10 J
b10 O
b10 f
b10 m
b100000 _
b1 ?
b1 X
b1 ^
b1 `
b11001000010010 ]
b10010 t
b11000 "
b11000 (
b11000 /
b11000 z
b11000 1
b11000 b
b11000 v
b1 s
b1 2
b1 M
b1 u
b10010 r
b0 5
b0 [
b0 \
0!
0<
18
b100000 9
b100000 P
b100000 j
b11101 A
b11101 k
b11101 n
b110010000100100010011 '
b110010000100100010011 4
b110010000100100010011 Y
b110010000100100010011 |
b111 {
b100000 :
b100000 U
b100000 g
b100000 i
b11101 F
b11101 W
b11101 d
b11101 l
b11100 &
b11100 ;
b11100 Q
b11100 R
b11100 T
b11100 V
1$
#45
0$
#46
b10 )
b10 6
b10 q
b10 y
b100 0
b100 L
b100 e
b100 @
b100 a
b100 c
b11100 3
b11100 p
b11100 w
b100000 _
b100 ?
b100 X
b100 ^
b100 `
b11100 G
b11100 h
b11100 o
b1000100000001000 ]
b1000 t
bx "
bx (
bx /
bx z
bx 1
bx b
bx v
b100 s
b1000 r
b11100 #
b11100 *
b11100 .
b11100 x
b11100 J
b11100 O
b11100 f
b11100 m
b100100 9
b100100 P
b100100 j
b100100 A
b100100 k
b100100 n
b10001000000010000010011 '
b10001000000010000010011 4
b10001000000010000010011 Y
b10001000000010000010011 |
b1000 {
b11000 2
b11000 M
b11000 u
b100100 :
b100100 U
b100100 g
b100100 i
b100100 F
b100100 W
b100100 d
b100100 l
b100000 &
b100000 ;
b100000 Q
b100000 R
b100000 T
b100000 V
1$
#47
0$
#48
1-
b11111111111111111111111111101000 0
b11111111111111111111111111101000 L
b11111111111111111111111111101000 e
b11111111111111111111111111101000 @
b11111111111111111111111111101000 a
b11111111111111111111111111101000 c
b100000 _
b11111111111111111111111111101000 ?
b11111111111111111111111111101000 X
b11111111111111111111111111101000 ^
b11111111111111111111111111101000 `
1,
b101000 3
b101000 p
b101000 w
b1111111010011111111100000 ]
b0 t
b1011 "
b1011 (
b1011 /
b1011 z
b1011 1
b1011 b
b1011 v
b1001 s
b11111 r
b100 5
b100 [
b100 \
1C
b101000 G
b101000 h
b101000 o
bx )
bx 6
bx q
bx y
b1100 9
b1100 P
b1100 j
b1100 A
b1100 k
b1100 n
b11111110100111111111000001101111 '
b11111110100111111111000001101111 4
b11111110100111111111000001101111 Y
b11111110100111111111000001101111 |
b1001 {
bx #
bx *
bx .
bx x
bx J
bx O
bx f
bx m
b101000 :
b101000 U
b101000 g
b101000 i
b1100 F
b1100 W
b1100 d
b1100 l
b100100 &
b100100 ;
b100100 Q
b100100 R
b100100 T
b100100 V
bx 2
bx M
bx u
1$
#49
0$
#50
0-
b10100 )
b10100 6
b10100 q
b10100 y
b10 0
b10 L
b10 e
b1001 #
b1001 *
b1001 .
b1001 x
b1001 J
b1001 O
b1001 f
b1001 m
b10 @
b10 a
b10 c
b100000 _
b1001100 ?
b1001100 X
b1001100 ^
b1001100 `
0,
b1001 3
b1001 p
b1001 w
b10000 9
b10000 P
b10000 j
b10100100100100001100 ]
b1100 t
b10 "
b10 (
b10 /
b10 z
b10 1
b10 b
b10 v
b10010 s
b1011 2
b1011 M
b1011 u
b1001 r
b10 K
b10 N
b10 Z
1E
0I
b10 5
b10 [
b10 \
08
0C
b1001 G
b1001 h
b1001 o
b1011000 A
b1011000 k
b1011000 n
b101001001001000011001100011 '
b101001001001000011001100011 4
b101001001001000011001100011 Y
b101001001001000011001100011 |
b11 {
b10000 :
b10000 U
b10000 g
b10000 i
b1011000 F
b1011000 W
b1011000 d
b1011000 l
b1100 &
b1100 ;
b1100 Q
b1100 R
b1100 T
b1100 V
1$
#51
0$
#52
b0 0
b0 L
b0 e
b11100 G
b11100 h
b11100 o
b10 )
b10 6
b10 q
b10 y
b0 @
b0 a
b0 c
b100000 _
b0 ?
b0 X
b0 ^
b0 `
b11100 #
b11100 *
b11100 .
b11100 x
b11100 J
b11100 O
b11100 f
b11100 m
b10 3
b10 p
b10 w
b100001001010 ]
b1010 t
b0 "
b0 (
b0 /
b0 z
b0 1
b0 b
b0 v
b0 s
b11100 2
b11100 M
b11100 u
b1000 r
1I
b0 5
b0 [
b0 \
b0 K
b0 N
b0 Z
1=
18
0E
b10100 9
b10100 P
b10100 j
b10000 A
b10000 k
b10000 n
b1000010010100000011 '
b1000010010100000011 4
b1000010010100000011 Y
b1000010010100000011 |
b100 {
b10100 :
b10100 U
b10100 g
b10100 i
b10000 F
b10000 W
b10000 d
b10000 l
b10000 &
b10000 ;
b10000 Q
b10000 R
b10000 T
b10000 V
1$
#53
0$
#54
1-
b10100 0
b10100 L
b10100 e
07
b0 )
b0 6
b0 q
b0 y
b10100 @
b10100 a
b10100 c
b11000 G
b11000 h
b11000 o
b10100 #
b10100 *
b10100 .
b10100 x
b10100 J
b10100 O
b10100 f
b10100 m
b100000 _
b10100 ?
b10100 X
b10100 ^
b10100 `
b11000 3
b11000 p
b11000 w
1,
b101000000000000001 ]
b1 t
bx "
bx (
bx /
bx z
bx 1
bx b
bx v
b10100 s
b0 2
b0 M
b0 u
b0 r
b100 5
b100 [
b100 \
0=
1C
b101000 9
b101000 P
b101000 j
b101000 A
b101000 k
b101000 n
b1010000000000000011101111 '
b1010000000000000011101111 4
b1010000000000000011101111 Y
b1010000000000000011101111 |
b101 {
b11000 :
b11000 U
b11000 g
b11000 i
b101000 F
b101000 W
b101000 d
b101000 l
b10100 &
b10100 ;
b10100 Q
b10100 R
b10100 T
b10100 V
1$
#55
0$
#56
b10 #
b10 *
b10 .
b10 x
b10 J
b10 O
b10 f
b10 m
0-
b10 0
b10 L
b10 e
b10 @
b10 a
b10 c
b100000 _
b10 ?
b10 X
b10 ^
b10 `
0,
b10 3
b10 p
b10 w
b101100 9
b101100 P
b101100 j
b100000000000101 ]
b101 t
b10 s
b0 5
b0 [
b0 \
0C
b10 G
b10 h
b10 o
b101010 A
b101010 k
b101010 n
b1000000000001010010011 '
b1000000000001010010011 4
b1000000000001010010011 Y
b1000000000001010010011 |
b1010 {
b101100 :
b101100 U
b101100 g
b101100 i
b101010 F
b101010 W
b101010 d
b101010 l
b101000 &
b101000 ;
b101000 Q
b101000 R
b101000 T
b101000 V
1$
#57
0$
